U OAKKAR KYAW	President	FM 	09000104	09-91034029	oakkarkyaw777@gmail.com
U ZAW YE THU	Vice President (1)	FM 	09000360	09-798599901	zawyethu@gmail.com
U PHYO WAI AUNG	Vice President (2)	FM 	09000361	09-2001194	phyowaiaung@gmail.com
U AUNG KYAW SOE 	Secretary	AM 	09000935	09-5134255	uaungkyawsoe@gmail.com
U NAY WIN AUNG	Joint Secretary(1)	PM 	09000101	09-259068086	nwa128@gmail.com
U WIN MIN TUN	Joint Secretary(2)	PM 	09000316	09-444008562	centralmandalay@gmail.com
U MYAT KHAING	Joint Secretary(3)	FM 	09000728	09-91001032	myatkhaing123@gmail.com
U PHONE SWE	Treasurer	FM 	09000013	09-402710318	phoneswe@gmail.com
U KYAW TUN AUNG	Joint Treasurer	PM 	12006720	09-5171929	kyawtunaung@gmail.com
U AUNG MOE THU	Auditor(1)	PM 	09001346	09-256528527	aungmoethu.mdy@gmail.com
DAW NILAR	Auditor(2)	PM 	09000006	09-797191545	nilarmdy@gmail.com
U AUNG KYAW PHYO	Member	AM 	09001445	09-91002847	aungkyawphyoe@gmail.com
U AUNG MON	Member	PM 	09001340	09-259520147	aungmon.myittha@gmail.com
U AUNG MYINT SOE	Member	PM 	09001262	09-6806102	koaungmyintsoe@gmail.com
U BO BO SAN	Member	PM 	09001358	09-2025951	bo2san@gmail.com
U KYAW MYO NAING	Member	PM 	09000398	09-402576886	kmnmdy@gmail.com
U KYAW THU TUN	Member	PM 	1200901	09-91044011	kth.ict@gmail.com
DAW MAW	Member	PM 	09000688	02-74322	dawmaw.megroup@gmail.com
U MIN THEIN	Member	PM 	09001077	09-444035269	minthein.ydb@gmail.com
DAW MYAT THARDER TIN	Member	PM 	09001360	09-6816712	myatthander@gmail.com
U PYAE SONE THEIN	Member	PM 	09000787	09-43014324	pkmdymyn@hotmail.com
U THAR THAR ZAN	Member	PM 	09001361	09-91004125	thartharzan@gmail.com
U WIN CHO OO	Member	PM 	09001103	09-402552567	winchooo@gmail.com
U ZAW THET MAUNG	Member	PM 	09000914	09-2038298	ztmaung@gmail.com
U AUNG KYAW SOE (YTP)	Member	AM 	09001620	09-2003199	koaung@gmail.com
U AUNG ZAW TUN	Member	PM 	09001708	09-444014309	mr.agzawtun@gmail.com
DAW EI PHYO THEIN	Member	PM 	09001275	09-797190688	eiphyothein@gmail.com
U ZAW MIN	Member	PM 	09000980	09-2028501	zawlat@gmail.com
U HTIN KYAW	Member	PM 	09002165	09-2005166	konayla@gmail.com
U THIHA THAUNG YIN	Member	PM 	12003672	09-2034021	thihathaungyin@gmail.com
DAW KYI SIN SHWE	Member	PM 	09001253	09-2035010	ua.kyicin@gmail.com