7	FM	U Thaung Su Nyein	U Win Aung	7.1.1977	M		12/ DaGaNa(N)001086	Managing Director	Inforithm-Maze Co./  Ltd.	Third Year Computer Science (New York)	Web development	559068/  559069/  559328/  559329/  09-8034582	planetmm@myanmar.com.mm	12/15/2003			E-11 Sein Lei Yeik Thar Lane/  New University Ave Rd/  Bahan Tsp.
31	AM	Hla Than Aung	U Soe Kyaing	7.9.1963	M		12/KaMaTa(N)014472	Computer Engineer and Supervisor	Samji Media Co./ Ltd.(Korea Company)	B.Sc(Physics)		548167				Yangon	No.35/ Hti Tan St./  Nyein Chan Yae Qtr /  KyiMyintDine.
33	PM	Mhann Ko Ko Win	U Khin Mg Win	26.5.1966	M		AMA-102004	Schlumberger Overseas S.A 		B.Sc(Geology)Honours		650369 /  666363					Mya Yeik Nyein Chan / 32 St./  Cor of 64 St./  Chan Aye Thar San Tsp./  Mandaylay .
34	SM	Thein Htaik	U Tun Kyi	11.6.1976	M		9/LaWaNa(N)122277					681787 /  681775					No. 139 /  Maggin St./  35 Qtr./ Dagon Myo Thit ( North).
35	AM	Aye Thidar Naing	U Myo Naing	19.8.1964	F		12/ThaGaKa(N)031684	Assistant Computer Programmer		B.A(Psych:) /  D.C.Sc		off:590233					15/  Paw San Mway St./  Tuwanna /  Yangon.
36	PM	Yadanar Oo	U Win Htein	8.3.1969	Female		SCG-012644	Management Information System Officer	MayKha Idustries Ltd.	M.C.Sc		510150				Yangon	18/6 /  (Ga) ThiriMingalar St./  Sanchaung /  Yangon.
41	AM	Than Oo	U Tin Shwe	21.8.1970	M		12/MaYaKa(N)058609	Chief Designer	DZ Thailand Ltd.	A.G.T.I (Mechanical Power)		660014				Yangon	10/D/ Tharlarwaddi St/ 7 Miles/ Mayangone Township/ (11061) Yangon
44	SM	Aye Aye Mon	U Aung Maw	28.5.1978	Female		12/KaTaTa(N)002567			1st Yr/  UCSY		272929				Yangon	120/B/ Ground Floor/ Seikanthar St/ KYTD.
45	AM	Soe Moe Thwin	U Phay Thwin	15.7.1969	M		TGI - 016620	Sale Coordinator 	Yangon Honda Co./  Ltd . 	B.Sc(Chem)	I.D.C.S 	 D.C.S	565607				Yangon
46	SM	Moe Kyaw	U Gyi Hla	18.10.1973	M		7/PaKhaNa(N)004419			B.Sc(Chem)	D.C.Sc(I.C.S.T)	052/22860				Yangon	188/ Kone Paw Tan St/ Pan Hlaing Qtr/ Bago.
48	FM	Soe Win Htoon	U San Win 	7.7.1945	M		RGN-003147		CE Technology	B.Sc/  DAC/  Dip in Business System Analysis		584461				Yangon	881/34/ Pin Lone St/  N/Dagon.
49	AM	Okkar Kyu Pe	U Phone Kyu Pe	13.8.1978	M		7/MaLaNa(N)058178	Programmer/System Analyst	Yoma Bank Ltd.	IDCS /  IHDCS		246549				Yangon	18/  Zalun St/  Sanchaung .
50	PM	Aye Aye Kyaw Zin 	U Kyaw Zin	31.5.1970	Female		YKN-015679	Computer Professional System Analyst	ACE Data System 	M.C.Sc		510614				Yangon	11/ Padonmar St/  Sanchaung.
54	PM	Saw Ohnmar Cho	U Myo Aye	17.7.1966	Female		KMYT-006256			B.Com/  D.C.Sc		531757				Yangon	Bld 4/ Rm 407/ Aungmyaetharsi Housing/ 
56	PM	Chit Khaing	U Chit Maung	2.11.1956	Female		12/MaGaTa(N)066174	Program Specialist	Yetagun Socio Eco Department	B.Com /  DAC		202811	chkhaing@gmail.com	25.9.1998	25.9.1998	Yangon	No.17/ 118 St/  Mingalar Taung Nyunt.
58	AM	Khin Myo Lwin	U San lwin	21.11.1962	F		KMYT-002919	Manager	MCC Standard 	B.Sc (Chemistry)/  LCCI (Level II)		221918 /  225592					No.28/ 1st Floor/ 2St/  Lanmadaw Tsp.
60	SM	Htay Htay Thaung	U A. Aung Gyi	25.11.1972	F		12/MaBaNa(N)000104			B.Sc Hons (Phys:)		566698				Yangon	4/B/ Kyauk Kone St/  14Qtr/  Yankinn.
61	SM	Thandar Lwin	U Zaw Lwin	1.9.1972	F		12/UKaTa(N)132213			B.Sc Hons (Phys:)		572945				Yangon	23/Yadana Lane Thawe/ 12 Qtr/  S/Okkalapa.
62	PM	Yu Yu Aung	U Hla Aung	16.1.1974	F	35	10/PaMaNa(N)000115			B.Sc Hons (Phys:)		660562		21.9.1998	21.9.1998	Yangon	26/ Thamadi St/ (8)Ward/  Mayangone Tsp/ 
63	SM	Hnin Witt Yee	U Sein Win	17.12.1977	F		12/ThaGaKa(N)136142			2nd Yrs/  UCSY		570419				Yangon	58/ Lay Daung Kan Rd/ Laydaungkan Qtr/ Thingangyun.
70	PM	Nay Win Min	U Kyin Min	30.8.1970	M		7/PaKaNa(N)179035	System Engineer	Slumberger			09-5048851	nwmin70@gmail.com	22.9.1998	22.9.1998		No(6)/  Aung ThuKha Street/  (9)Mile/  Mayangone Tsp.
75	PM	Aung Ko Khaing	U Pho Khaing	6.8.1978	M	32	12/MGDN(N)099436	Senior Marketing Executive	MMG	B.Sc(Physics)	I.D.C.S 	 D.C.S	600200	khaing.aungko@gmail.com	22.9.1998	22.2.1998	Yangon
112	PM	Myat Sandar Kyaw	U Aung Myat Kyaw	13.1.1970	F	40	12/LaMaTa(N)013231	Deputy Manager	Myawady Bank Ltd	BSc(Chemistry)	DCSc	09-5011425	msmyatsanda@gmail.com	30.9.1998	30.9.1998		No(87)/  Yadanarbon Street/  Kyimyindaing Tsp
144	PM	Phyo Wai Soe			M							581453				Yangon	No-67/ Bo Min Yaung Road/  (34/368)/  34th Qtr/  North Dagon.
191	AM	Dr.Kyaw Sann Oo	U Aung Kyaw Hla	29.2.1972	M		11/MaOoNa(N)000584					09-73229846	kyawsann@gmail.com				No.67/  4 Floor/  Makyi kyi St/  Sanchaung
195	AM	Thuzar Min Min Khaing	U Minn	12.10.1973	F	36	12/KaTaTa(N)001606	Accountant	Sein Brothers	Computer Studies Level(III)		95041200				Yangon	No(897)/  Padauk Street/  (45) Qtr/  North Dagon.
202	PM	Tin Maung Htway	U Shwe Gin	26.5.1947	M	57	OPO - 002773			B.Sc ( Che)/  D.Ac		584039				Yangon	No.558/ Pin Lon St/  34 Qtr/ N/Dagon.