7000004	AM	Moth Moth Mg Thin	U Mg Thin	19.5.1987	F	25	7/TaNgaNa(N)135231	Teaching	Royal Star Computer Centre	Dip in Software Engineering	2011 to today	054-24311	mothmothmg@gmail.com	15.3.2012	15.3.2012	Bago	Nyein Chan Yay 3 Street, Toung Ngu
7000005	AM	Sandar Win	U Tin Win	25.2.1982	F	30	7/TaNgaNa(N)133201	Teaching	Royal Star Computer Centre	Dip in Software Engineering	2011 to today		sandarwin2006@gmail.com	15.3.2012	15.3.2012	Bago	Toung Ngu
7000006	AM	Mya Yadanar Aung		11.6.1992	F	20	7/TaNgaNa(N)144515	Manager	Aung Yadanar Sales Centre	B.C.Sc		09-43019786	yadanaraung.may@gmail.com	15.3.2012	15.3.2012	Bago	117/17,Marchant Street, Taungoo
7000007	AM	Nann Aye Myint Aung	U Khin Maung Myint	26.6.1983	F	29	7/TaNgaNa(N)116858	Training Manager	UniSUN Computer Training Centre	B.C.Sc		054-24776	nannayemyintaung@gmail.com	15.3.2012	15.3.2012	Bago	123,6 Qtr, Pagoda Street, Taungoo
7000010	AM	Khin Nwe Win	U Thein Hlaing	24.7.1972	F	40	7/TaNgaNa(N)002360	Director	Kye Sin Computer Training Centre	M.I.Sc,D.C.Sc,Dip in Software, B.Sc (Hons) Maths		09-6300852/428198122	nwepretty@gmail.com	15.3.2012	15.3.2012	Bago	6/136, Tapinshwehtee Street, Taunggoo
7000011	AM	Tin Zar Phyo	U San Shar		F		7/TaNgaNa(N)109890	Course Manager	Info-City Computer Training Centre	B.Sc (Physics), Dip in Computer		103610070	tinzarphyo2007@gmail.com	15.3.2012	15.3.2012	Bago	18/715,Thapyay San Street, Taungoo
7000013	SM	Thin Thin Nwe	U Win Sein	28.6.1985	F	27	7/PaMaNa(N)134286	Caisher	Royal Star Computer Centre	1st Year Eco		054-23439	thinthinnwe.ns@gmail.com	15.3.2012	15.3.2012	Bago	5th Street, Taunggoo
7000017	SM	Thin Wai Wai Naing	U Hla Aung	8.6.1993	F	19	7/TaNgaNa(N)161877	Teaching	UniSUN Computer Training Centre	Third Years B.C.Sc		09-49430493	thinwaiwainaing@gmail.com	15.3.2012	15.3.2012	Bago	6/69, Pagoda Street, Taunggoo
7000021	SM	Nandar Toe	U Thaw Tar	2.4.1977	F	35	14/BaKaLa(N)000326	Teaching	Royal Star Computer Centre	BA(Eng) Hons, MCF,FEB		054-24320	bonnzine@gmail.com	15.3.2012	15.3.2012	Bago	164, Saya Phay Street, Taunggoo
7000024	AM	Hnin Pwint Wai	U Phoe Kyi		F		7/TaNgaNa(N)158012	Student		First Semster D.S.E		09-43016795	khantlay.tgo@wm	15.3.2012	15.3.2012	Bago	Min Gyi Nyo,Pin Ya No 409, Taunggoo
7000030	AM	Ni Lar Myint	U Myint Han	28.10.1978	F	34	7/PhaKhaNa(N)193252	Instructor	STG Computer Center	IDCS (NCC,UK), AGTI,BA Law		09-8652010	ruby.bago@gmail.com	15.3.2012	15.3.2012	Bago	889, Social Lit 3 Street, Bago
7000032	AM	May Wint Aung	U Hla Win	21.6.1977	F	35	7/PaKhaNa(N)215058	Manager	STG Computer Center	B.C.Sc		052-23967	wintwint02@gmail.com	15.3.2012	15.3.2012	Bago	113, Yuzana Street, Yonegyi Qtr, Bago
7000034	AM	Thet Thet	U Myint Soe	2.5.1989	F	23	7/PaMaNa(N)148839			MCSC,BCSC (hons)		053-27379	thetthetaat@gmail.com	15.3.2012	15.3.2012	Bago	Aung San Pyitharyar Street, Pyitharyar Qtr, Pyay
7000035	AM	Aye Mya Mya	U Tin Tun	13.3.1983	F	29	7/PaKhaNa(N)254823	Hardware Technican	STG Computer Center	B.C Tech, Hons		052-201435	ayemyamya2009@gmail.com	15.3.2012	15.3.2012	Bago	376, South Zainganne Qtr, Strand Road, Bago
7000038	AM	Soe Sandi Win	U Soe Win	15.6.1982	F	30	7/PaKaNa(N)209635			B.C.Sc (hons)		052-21956	82sandi@gmail.com	15.3.2012	15.3.2012	Bago	46, Thoon Pagoda Street, Bago
7000040	SM	Shwe Yin Mon	U San Shwe	2.11.1983	F	29	7/PaKhaNa(N)234151	Lecturer	MCC	B.Sc (Botany)		052-22323	s.yinmon@gmail.com	15.3.2012	15.3.2012	Bago	MCC Computer Center,Shwe Maw Daw Pagoda
7000049	AM	Htar Htar Aung	U Hla Tin	7.4.1979	F	32	12/MaGaTa(N)076110	Demostrator	G.T.H.S (Taunggoo)	M.I.Sc (thesis), D.C.Sc	2008 to now	09-43035125	htar476@gmail.com	21.7.2012	21.7.2012	Bago	Min Gyi Shwe, Kay Tu Ma Di
7000052	AM	Thazin Khing	U Myint Oo	2.7.1992	F	20	7/PaMaNa(N)175747			B.C.Sc		054-50347	thazinkhing2012@gmail.com	21.7.2012	21.7.2012	Bago	Phyu Tsp. Bago
7000053	AM	Nway Tha Zin Aung	U Tin Aye	9.3.1992	F	20	-			B.C.Sc		054-75081	nwaythazinaung@gmail.com	21.7.2012	21.7.2012	Bago	Yay Tar She Tsp, Bago
7000054	AM	Su Aye Thant	U Mg Myint	26.6.1984	F	28	7/TaNgaNa(N)144403			B.C.Sc		98660208	royalgirl84@gmail.com	21.7.2012	21.7.2012	Bago	
7000055	AM	Nwe Nwe	U Khin Aye	26.11.1988	F	30	7/PhaMaNa(N)134950			Dip SE		09-5480380	nwe816@gmail.com	21.7.2012	21.7.2012	Bago	3 Qtr,Mya Waii Street, Yay Tar She Tsp. Bago
7000110	SM	YA MIN	U ZAW MIN THEIN	20-3-1991	F		7/PA MA NA (N) 158010	STUDENT		B.Tech.(E.P)		09-423664700	laminlay053@gmail.com	23.1.2013	23.1.2013	Bago	
7000001	AM	Nay Win Tun	U Than Win	4.7.1984	M	28	7/TaNgaNa(N)136403	Owner	IT Star Computer Training Centre	B.Sc/D.S.E		09-49764413	nayjuju@gmail.com	15.3.2012	15.3.2012	Bago	IT Star Computer Training Centre, Myothit Toungoo.
7000002	AM	Nyan Shein Myint	U Khin Aung	7.9.1983	M	29	7/PTN(N)102396	MD	NSM Company Ltd	Business Management/ Dip in IT		09-5310549	nyanshein.myint@gmail.com	15.3.2012	15.3.2012	Bago	352/Lanmadaw Road, Pyay, Bago Division
7000003	AM	Kyaw Than Htun	U Htun Myint	22.11.1982	M	30	TGO-184962	Service Technican	UniSUN Computer Training Centre	MCP/Hardware & Network Engineering BA(Eng), Dip in Software Engineering		054-24776	songooster@gmail.com	15.3.2012	15.3.2012	Bago	6/123,Pagoda Street, Taungoo
7000008	AM	Nyi Min Kyaw	U Ohn Han	20.2.1979	M	33	7/TaNgaNa(N)103706	Owner	Kaung Khant Computer Sales & Services	B.C Tech		09-5350675	chintoolan@gmail.com	15.3.2012	15.3.2012	Bago	19 Qtr, YGN-MDY Main Road, Taungoo
7000009	AM	Pau Suan Mung	U Lian Za Khai	2.6.1983	M	29	7/YaTaYa(N)083261	Tutor	Computer University Taunggoo	B.C.Sc (Hons),M.C.Sc,Web Java		09-49313062	psmung2012@gmail.com	15.3.2012	15.3.2012	Bago	Computer University Taunggoo
7000014	SM	Aung Ye` Kyaw Kyaw	U Aung Moe	26.4.1992	M	20	7/ATN(N)090203	Graphic Designer	Royal Star Computer Centre	Final Year (Eng)	2011 to today	054-24311/25093	3davidbackham@gmail.com	15.3.2012	15.3.2012	Bago	257, Moekaung Street, Malkone Qtr,Oktwin
7000015	SM	Zay Yar Lin	U Than Myint	7.4.1987	M	25	7/TaNgaNa(N)137002	AIS Manager	Royal Star Computer Centre	LLB	2011 to today	054-24311	zayylwin@gmail.com	15.3.2012	15.3.2012	Bago	Net Sin Gone Viuage, Taunggoo
7000016	SM	Kishan	U Bijay	4.3.1992	M	20	7/PhaMaNa(N)196414	Operator	Royal Empyre Internet Shop	Second Years B.C.Sc		09-49437029	rechan.zyd@gmail.com	15.3.2012	15.3.2012	Bago	Zeyawaddy,Phyu
7000018	SM	Than Dana	U Nyein	7.10.1990	M	18	7/TaNgaNa(N)146400	Training Manager	Hein Htet Thar Computer	Second Years B.C.Sc		09-5350590	thandana@mmcrackingteam.org	15.3.2012	15.3.2012	Bago	4/137(A), 5 Street, Taunggoo
7000019	SM	Okka Kyaw	U Zaw Win	5.8.1992	M	20	7/TaNgaNa(N)171228	Lecturer	Kye Sin Computer Training Centre	Third Years B.C.Sc		09-4944559	narcoticice@gmail.com	15.3.2012	15.3.2012	Bago	11/151, Sayar Phyay Street, Taunggoo
7000020	SM	Lwin Min Ko	U Kyin Thein	6.8.1989	M	23	7/ATN(N)106902	Internet Suervisor	Royal Star Computer Centre	First Year (Myanmar)			lwinminko004@gmail.com	15.3.2012	15.3.2012	Bago	Main Road, Taunggoo
7000022	SM	Win Aung	U Chun Kyee	11.5.1952	M	60	7/PhaKhaNa(N)182836			BSc		052-24015	tawsitcar09@gmail.com	15.3.2012	15.3.2012	Bago	650, Shwe Thaly Aung Pagoda Road, Kalyarni
7000025	AM	Wana Htut	U Zaw Win	19.8.1992	M	20	7/TaNgaNa(N)164647			First Semster D.S.E,Third YearGEO		09-49430584	minkhaung@gmail.com	15.3.2012	15.3.2012	Bago	Min Gyi Nyo ,Taunggoo
7000026	AM	Khine Zaw Lin	U Hla Kyaing	6.7.1979	M	33	7/ThaWaTa(N)063047			Dip in Computer Arts		09-73032767	khine27@gmail.com	15.3.2012	15.3.2012	Bago	Sayarsan Street, Sayarsan Myothit, Tharwaddy
7000027	AM	Kyaw Swa Oo	U Min Lwin	22.5.1974	M	38	7/TaNgaNa(N)009349			B.E (Civil), MBA		09-5042588	neotech.mm@gmail.com	15.3.2012	15.3.2012	Bago	310-B, 117,18th Street, Latha
7000028	AM	Ye Myint Aung	U Nan Chit	1.12.1971	M	41	7/PaMaNa(N)043723	Director	Netware Computer Center	B.E (Electrical Power)	2004 to Now	09-5311085	yemyintaung.ncc@gmail.com	15.3.2012	15.3.2012	Bago	1754/ War Yone Street, Ta Yoke Su Qtr, Pyay
7000029	AM	Thu Ta Win	U Win Kyi	20.4.1973	M	39	7/DauNa(N)000137	Owner	Tera Computer Training	B.Sc (Zoo), Auto Cad		09-43038811	kothutawin@gmail.com	15.3.2012	15.3.2012	Bago	527, Maw Road, Bago
7000031	AM	Htike Lin	U Win Myint	1.4.1967	M	45	7/PaKaNa(N)171242	Proprietor	STG Computer Center	B.E (Machnical)		052-21546	htikelin2005@gmail.com	15.3.2012	15.3.2012	Bago	259, 33rd Street, Shin Saw Pu Qtr,Bago
7000033	AM	Kaung Myat Mg Mg Myint	U Mg Mg Myint	6.2.1989	M	23	7/PaKhaNa(N)269150	Owner	Bagan Internet & Network Game	Dip in Computer Arts		09-5301300	accessdenied@mmitfriendships.org	15.3.2012	15.3.2012	Bago	102, Yuzana Road, Bago
7000036	AM	Chan Myae Aung	U Kan Win	5.10.1985	M	27	12/YaPaTha(N)070865	Principal	Knowledge Age Computer Centre	B.Sc(Bio), Dip in Software Engineering		09-49277995	knowledgeagecomputer@gmail.com	15.3.2012	15.3.2012	Bago	42, Bo-Jyoke Road, Pyay
7000039	SM	Zay Yar Myo Tun	U Tun Myint	12.12.1972	M	40	7/PaKhaNa(N)004437	Owner	Ye Zar Ni Computer And Copier	B.Sc (Physcs), DOS and Window		052 21934	thergyi@gmail.com	15.3.2012	15.3.2012	Bago	636, Taungoo Road, Myothit
7000041	SM	Aung Than Win	U Tin Hla	24.10.1981	M	31	7/PaKaNa(N)185978	Owner	Toe Computer Sale & Service	BSc (Maths)		052-22147/09-5380497	toezontoe@gmail.com	15.3.2012	15.3.2012	Bago	51, 19th Street, Bazar Qtr, Bago
7000042	SM	Thi Ha Soe	U Soe Myint	13.9.1974	M	38	7/PhaKhaNa(N)004548			BSc (Physics)		09-49450036	timegammer@gmail.com	15.3.2012	15.3.2012	Bago	435, Pyi Taw Tha 1 Street, Yone Gyi Bago
7000043	SM	Aung Myo Thu	U Win Naing	12.11.1989	M	29	7/PhaKhaNa(N)309015	Owner	Hello Mobile	Computer System & Hardware		09-43008034	luckyaunglay1@gmail.com	15.3.2012	15.3.2012	Bago	285,A, Shwemawdaw Pagoda,Bago
7000044	AM	Kyaw Si Thu Aung		2.5.1991	M	19	7/PaMaNa(N)142876			Software Engineering		09-73199994	rocker25486@gmail.com	21.7.2012	21.7.2012	Bago	Pyi Taw Thar, Taunggooo
7000045	AM	Min Phone Moh	U Soe Lwin Oo	11.10.1990	M	20	7/PaKaNa(N)278868	Tempoary Editing Staff	JICA	B.Sc (Zoo)		052-23173	minphone007@gmail.com	21.7.2012	21.7.2012	Bago	Bago
7000046	AM	Kyaw Kyaw Linn	U Kyin Aye	1.6.1981	M	31	7/ThaNaPa(N)064528	Owner	Linn Computer Centre	Dip in Hardware Engineering		052-46027	kokyawlinn1981@gmail.com	21.7.2012	21.7.2012	Bago	235,Sin Phyu Shin Street, Bago
7000050	AM	Aung Min Oo	U Aung Than Win	15.10.1991	M	19	7/AhTaNa(N)086655			Hardware A+		09-428114314	aungminoomc@gmail.com	21.7.2012	21.7.2012	Bago	Da Mar Yone Qtr, Kywe Pwe, Oaktwin
7000102	SM	THANT ZIN MYINT	U MYO MYINT	18-1-1991	M		7/YA TA NA (N) 106870	STUDENT		B.E (ELECTRICAL POWER)		09-423665075	goodnighthello.764@gmail.com	23.1.2013	23.1.2013	Bago	
7000104	SM	KO KO KHAING	U MYA WIN	5-3-1993	M		7/PA MA NA (N) 162608	STUDENT		3rd GEOLOGY		09-452336398	tomlay.kiki@gmail.com	23.1.2013	23.1.2013	Bago	
7000111	SM	EI PHYU KYAW	U NU YI	9-10-1985	M		7/PA MA NA (N) 138122	OFFICE STAFF	MTE PYAY			09-5324240	fancygirl.phyuphyu852@gmail.com	23.1.2013	23.1.2013	Bago	
7000113	SM	PHYO MAUNG MAUNG KYAW	U MG MG OO	20-8-1992	M		7/PA MA NA (N) 154585	STUDENT		ELECTRICAL/ELECTRONIC ENGINEER		09-5366231	phyo.coffee.maung@gmail.com	23.1.2013	23.1.2013	Bago	
7000116	SM	KHUN KYAW THU TUN	U THAN NAING	4-6-1990	M		7/TANGANA (N) 159668	COMMERCIAL MANAGER	KHINE THIT SAR CO., LTD	B.A (MYANMAR)		09-428114185	khunkyawthutun@gmail.com	23.1.2013	23.1.2013	Bago	
7000127	SM	Soe San Lin	U THAN HTAY	31-3-1987	M		7/ZA KA NA (E) 000030			LLB		95363408	kosoesanlin.com@gmail.com			Bago	MYO PATT STREET, ZIGON
7000128	SM	Thu Rain Linn	U AYE SWE	17-8-1996	M		7/PA MA NA (N) 180923	STUDENT		1ST PTU(CIVIL)		9423667233	thurainlinn7@gmail.com			Bago	12/141(A) 9TH STREET, NAWIN, PYAY
7000129	SM	Wai Yan Win Ko	U WIN KO	30-11-1996	M		7/PA MA NA (N) 188697	STUDENT		1ST PTU(EP)		9423684654	htetkolin2012@gmail.com			Bago	AUNG THU KHA STREET, MAY THE WAH PAWNSHOP, PYAY
7000133	AM	YE WINT KO	U AYE KO	20-5-1987	M		12/KAMAYA(N) 053261	NETWORK TECHNICIAN		B.Sc (Physics),MCSA,CCNA		09-5416647	ywkoko@gmail.com	28.8.2013	28.8.2013	Bago	
7000134	SM	HTET ARKAR KO KO	U TIN KO KO	26-4-1987	M		12/KAMAYA(N) 128898	DOCTOR		M.B.B.S		09-43138108	arkardoctor208@gmail.com	28.8.2013	28.8.2013	Bago	
12006483	PM	Wai Yan Thwin	U Myo Thwin	29.5.1991	M	26	7/ PA Ma Na (N) 165022	Business Development Manager	Rangoon Tech	B.A(English)/ IDCS	2008 to now	9423658737	wai.yan207@gmail.com	1.7.2008	1.7.2008	Bago	3/3 St, Khittaya Myothit , Pyay
7000060	AM	Zin Mar Lwin					7/TaNgaNa(N)130307			D.S.E (Software) , B.A( History)	Manager	054-80380	zinmarlwin.kyesin@gmail.com			Bago	Kye SinT Computer Centre (II), Yedashe Township
7000061	AM	Hsu Pyae Phyo					7/TaNgaNa(N)133195			B.C.Tech (Hons:)	Lecturer	054-24311	pinkangle33@gmail.com			Bago	Royal Star Computer Training Centre
7000062	SM	Yi Mon Aye					7/AhTaNa(N)078543			B.A (English)	Operator	054-24301	realimagecomputer@gmail.com			Bago	Real Image Computer
7000063	SM	Naw Corina					7/TaNgaNa(N)117969			L.L.B	Owner	054-25613	pyaepyae@gmail.com			Bago	Pyae Pyae Software CD Sales Centre
7000064	AM	Dr. Win Ye Khaing					7/TaNgaNa(N)000051			M.B.B.S (Mdy)	Owner	09-5950443	winyekhaing@gmail.com			Bago	Win Family Sales Centre
7000065	SM	Moe Moe Kyaw								2nd Year, CS	Computer Student	09-49437088	anglelay26@gmail.com			Bago	Phyu Township
7000066	AM	Than Htut Lin					7/NyaLaPa(N)139181			B.Econ(Economics)		052-42477	infothanhtut@gmail.com			Bago	
7000067	AM	Yan Paing Tun					7/PaKhaNa(N)272982			B.Sc(Maths)	Video Editor	09-423678049	kopaing8982@gmail.com			Bago	Ko Tint Video
7000069	AM	Ei Mo Mo Htun					7/PaKhaNa(N)227850			B.C.Sc	Owner	09-458021881	eimomohtun27@gmail.com			Bago	Ei Mo Computer Center
7000070	SM	Aung Myo Htut					7/PaKhaNa(N)200461				Owner	09-452335800	crownphotobago24@gmail.com			Bago	Crown Photo/Video Studio
7000071	SM	Min Khant					7/PaKhaNa(N)186776			B.A(Geography)	Supervisor	09-43132993	kominkhant09@gmail.com			Bago	Ei Mo Computer Center
7000072	SM	Soe Ko Ko Win					7/PaKhaNa(N)236197			B.D.S	Supervisor	09-5129685	soeko88@gmail.com			Bago	Toe Computer Center
7000073	SM	Wunna Kyaw					7/PaKhaNa(N)245015			B.Sc(Physics)	Hardware Technician	052-201189	wunnakyaw.64.2012@gmail.com			Bago	Toe Computer Center
7000074	SM	Myo Thiha Kyaw					7/PaKhaNa(N)262146			B.Sc(IC)	Trainer	09-8651988	mthk.mm@gmail.com			Bago	IT Wave Computer Center
7000075	AM	Nann Ei Ei Thwin					7/PaKhaNa(N)254881			B.E(Electronics)		09-428135200	nanneieithwin.sy@gmail.com			Bago	
7000076	SM	Min Han Tun					7/PaKhaNa(N)033759			Grade 11		09-421000029	minhuntun26@gmail.com			Bago	
7000078	AM	Nway Nway Cho					7/PaKhaNa(N)245759			M.C.Sc	Software Developer	09-8623882	nnhwaycho@gmail.com			Bago	Netizen Cyber Co.Ltd
7000079	SM	Phoo Wai Mon Oo					7/PaKhaNa(N)336964			1st Year (English)		09-428115475	cupid.998@gmail.com			Bago	
7000080	SM	Kaythi Aung					7/PMN(N)160129			B.Sc (Zoology)	INSTRUCTOR	09-423664270	snow.november007@gmail.com			Bago	SOFTGUIDE(PYAY)
7000081	SM	Khin Khin Oo					7/NTL(N)104323			B.A (Myanmar)	INSTRUCTOR	09-49501759	snowqueen1979@gmail.com			Bago	SOFTGUIDE(PYAY)
7000082	AM	Khin Myat Moe					7/PaMaNa(N)159881			B.C.Sc (Hon)		09-8680141	pyaepyae198@gmail.com			Bago	
7000083	AM	Kyaw Phyo Linn					7/PaMaNa(N)140856			B.Sc (Botany) Q.	INSTRUCTOR	09-49501759	cskplinn@gmail.com			Bago	SOFTGUIDE(PYAY)
7000087	AM	Thaw Thaw Thein Aye					7/YaTaNa(N)101339			B.C.Sc (Hon), M.C.Sc(Thesis)		09-423672390	pyaepyae198@gmail.com			Bago	
7000088	SM	Thu Zar Aye					8/TYN(N)080199			B.A(Geography)	INSTRUCTOR	09-43067253	thuzar516@gmail.com			Bago	SOFTGUIDE(PYAY)
7000089	SM	Win Eaindra Ba Thaung					7/PaMaNa(N)163418			B.C.Sc (THIRD YEAR)	STUDENT	09-423660551	wineaindrabathaung@gmail.com			Bago	
7000090	SM	Win Win Swe					8/KMN(N)049955			B.A(English)	INSTRUCTOR	09-423674281	royalrosewws@gmail.com			Bago	SOFTGUIDE(PYAY)
7000092	SM	Kyaw Thu Soe					7/PaMaNa(N)000260			B.A (Geo:)		09-5310722	thurasoe9002@gmail.com			Bago	
7000093	AM	Thuzar Htwe					7/PaMaNa(N)185580			B.C.Tech			thuzar.tzh@gmail.com			Bago	
7000094	AM	Nyein Chan Sandy					7/PaMaNa(N)179549			B.C.Tech		09-423668111	sandy.honey.94@gmail.com			Bago	
7000095	AM	Khin Phyu Thwin					7/LaPaTa(N)139023			B.C.Sc(HONS)		09-5054825	kphyumoonlit@gmail.com			Bago	
7000096	AM	Chan Myae Myae Lwin					7/PaMaNa(N)179208			B.C.Sc			sakurah.687@gmail.com			Bago	
7000098	AM	Zin May Aung					7/PaKhaNa(N)250625			B.C.Sc, LCCI LEVEL (III), Diploma in Accounting,		09-43137710	hninnwe099@gmail.com			Bago	
7000099	AM	May Thu					7/PaKhaNa(N)265811			B.E(IT)		09-5302386	nansanthu.mi@gmail.com			Bago	
7000117	AM	Han Thar Myo Thant					13/Ta Nga Na (N) 060884			Dip-SE, final English			hanthar09@gmail.com	28.2.2013	28.2.2013	Bago	
7000118	AM	Ei Mon					7/Ta Nga Na (N) 156580			Dip-SE, LL.B			poepawar.laminthar@gmail.com	28.2.2013	28.2.2013	Bago	
7000119	SM	Zar Ni Win					7/Ya Ka Na (N) 056683			first semester [Dip-SE], B.Sc (Maths;)			blovez627@gmail.com	28.2.2013	28.2.2013	Bago	
7000120	SM	Suu Myaht Thwe					7/Ah Ta Na (N) 093632			first semester [Dip-SE]			whitelotus.lotus11@gmail.com	28.2.2013	28.2.2013	Bago	
7000121	SM	Suu Myaht Cyai					7/Ah Ta Na (N) 093633			first semester [Dip-SE], B.Sc (Botany)			luckysmilelay2012@gmail.com	28.2.2013	28.2.2013	Bago	
7000122	SM	Khing Zin Thant					7/Ta Nga Na (N) 194113			first semester [Dip-SE]			smilechocho2013@gmail.com	28.2.2013	28.2.2013	Bago	
7000123	SM	May Thazin Than					7/Ta Nga Na (N) 162404			first semester [Dip-SE], A.G.T.I (Architect)			mtzt.peta@gmail.com	28.2.2013	28.2.2013	Bago	
7000124	SM	Tharaphe Oo					7/Ka Ta Kha (N) 178732			first semester [Dip-SE], B.A (Myanmar)			goldernsmile@gmail.com	28.2.2013	28.2.2013	Bago	
7000125	AM	Myat Su Aung					7/Da O Na (N) 151414			B.C.Sc			23492.ms@gmail.com	28.2.2013	28.2.2013	Bago	